<svg width="40" height="40" viewBox="0 0 40 40" fill="none" xmlns="http://www.w3.org/2000/svg">
<rect x="5" y="6" width="30" height="4" fill="url(#paint0_linear)"/>
<rect x="5" y="18" width="30" height="4" fill="url(#paint1_linear)"/>
<rect x="5" y="30" width="30" height="4" fill="url(#paint2_linear)"/>
<defs>
<linearGradient id="paint0_linear" x1="-10" y1="8" x2="-8.95197" y2="15.8603" gradientUnits="userSpaceOnUse">
<stop stop-color="#B4B2F1"/>
<stop offset="1" stop-color="#7838FF"/>
</linearGradient>
<linearGradient id="paint1_linear" x1="-10" y1="20" x2="-8.95197" y2="27.8603" gradientUnits="userSpaceOnUse">
<stop stop-color="#B4B2F1"/>
<stop offset="1" stop-color="#7838FF"/>
</linearGradient>
<linearGradient id="paint2_linear" x1="-10" y1="32" x2="-8.95197" y2="39.8603" gradientUnits="userSpaceOnUse">
<stop stop-color="#B4B2F1"/>
<stop offset="1" stop-color="#7838FF"/>
</linearGradient>
</defs>
</svg>
